\relax 
\catcode `"\active 
\catcode `<\active 
\catcode `>\active 
\@nameuse{es@quoting}
\abx@aux@sortscheme{apa}
\@writefile{toc}{\boolfalse {citerequest}\boolfalse {citetracker}\boolfalse {pagetracker}\boolfalse {backtracker}\relax }
\@writefile{lof}{\boolfalse {citerequest}\boolfalse {citetracker}\boolfalse {pagetracker}\boolfalse {backtracker}\relax }
\@writefile{lot}{\boolfalse {citerequest}\boolfalse {citetracker}\boolfalse {pagetracker}\boolfalse {backtracker}\relax }
\select@language{spanish}
\@writefile{toc}{\defcounter {refsection}{0}\relax }\@writefile{toc}{\select@language{spanish}}
\@writefile{lof}{\defcounter {refsection}{0}\relax }\@writefile{lof}{\select@language{spanish}}
\@writefile{lot}{\defcounter {refsection}{0}\relax }\@writefile{lot}{\select@language{spanish}}
\@writefile{toc}{\defcounter {refsection}{0}\relax }\@writefile{toc}{\contentsline {chapter}{\IeC {\'I}NDICE DE FIGURAS}{v}}
\@writefile{toc}{\defcounter {refsection}{0}\relax }\@writefile{toc}{\contentsline {chapter}{CAP\IeC {\'I}TULO 1. \hspace  {0.2cm} \uppercase {Introducci\IeC {\'o}n}}{7}}
\@writefile{toc}{\defcounter {refsection}{0}\relax }\@writefile{toc}{\contentsline {chapter}{CAP\IeC {\'I}TULO 2. \hspace  {0.2cm} \uppercase {Objetivos}}{9}}
\@writefile{toc}{\defcounter {refsection}{0}\relax }\@writefile{toc}{\contentsline {section}{2.1 \hspace  {0.5cm}\uppercase {Objetivo General}}{9}}
\@writefile{toc}{\defcounter {refsection}{0}\relax }\@writefile{toc}{\contentsline {section}{2.2 \hspace  {0.5cm}\uppercase {Objetivos espec\IeC {\'\i }ficos}}{9}}
\@writefile{toc}{\defcounter {refsection}{0}\relax }\@writefile{toc}{\contentsline {chapter}{CAP\IeC {\'I}TULO 3. \hspace  {0.2cm} \uppercase {Marco te\IeC {\'o}rico}}{11}}
\@writefile{toc}{\defcounter {refsection}{0}\relax }\@writefile{toc}{\contentsline {section}{3.1 \hspace  {0.5cm}\uppercase {Descripci\IeC {\'o}n de contenidos}}{11}}
\@writefile{toc}{\defcounter {refsection}{0}\relax }\@writefile{toc}{\contentsline {section}{3.2 \hspace  {0.5cm}\uppercase {Configuraciones de cach\IeC {\'e}}}{11}}
\@writefile{toc}{\defcounter {refsection}{0}\relax }\@writefile{toc}{\contentsline {subsection}{3.2.1 \hspace  {0.2cm} Cach\IeC {\'e} mapeo directo}{11}}
\@writefile{lof}{\defcounter {refsection}{0}\relax }\@writefile{lof}{\contentsline {figure}{\numberline {3.1}{\ignorespaces Ejemplo de cache utilizando mapeo directo Ref: \textit  {PATTERSON, David A. y Hennessy, Jonh L. Computer Organization and Design 3era Edici\IeC {\'o}n San Francisco, Elsevier ,2005 , p. 473}}}{12}}
\@writefile{toc}{\defcounter {refsection}{0}\relax }\@writefile{toc}{\contentsline {subsection}{3.2.2 \hspace  {0.2cm} Cach\IeC {\'e} full asociativo}{12}}
\@writefile{toc}{\defcounter {refsection}{0}\relax }\@writefile{toc}{\contentsline {subsection}{3.2.3 \hspace  {0.2cm} Cach\IeC {\'e} asociativo por bloques}{13}}
\@writefile{toc}{\defcounter {refsection}{0}\relax }\@writefile{toc}{\contentsline {section}{3.3 \hspace  {0.5cm}\uppercase {Descripci\IeC {\'o}n de algoritmos a utilizar}}{13}}
\@writefile{toc}{\defcounter {refsection}{0}\relax }\@writefile{toc}{\contentsline {subsection}{3.3.1 \hspace  {0.2cm} Algoritmo de Dijkstra}{13}}
\@writefile{toc}{\defcounter {refsection}{0}\relax }\@writefile{toc}{\contentsline {subsection}{3.3.2 \hspace  {0.2cm} Algoritmo Best First Search}{14}}
\@writefile{toc}{\defcounter {refsection}{0}\relax }\@writefile{toc}{\contentsline {chapter}{CAP\IeC {\'I}TULO 4. \hspace  {0.2cm} \uppercase {Desarrollo}}{15}}
\@writefile{toc}{\defcounter {refsection}{0}\relax }\@writefile{toc}{\contentsline {section}{4.1 \hspace  {0.5cm}\uppercase {Procedimiento y descripci\IeC {\'o}n de la experiencia}}{15}}
\@writefile{lof}{\defcounter {refsection}{0}\relax }\@writefile{lof}{\contentsline {figure}{\numberline {4.1}{\ignorespaces Grafo utilizado como objeto de an\IeC {\'a}lisis para la experiencia}}{15}}
\@writefile{toc}{\defcounter {refsection}{0}\relax }\@writefile{toc}{\contentsline {section}{4.2 \hspace  {0.5cm}\uppercase {Pruebas Algoritmo Best First Search}}{16}}
\@writefile{toc}{\defcounter {refsection}{0}\relax }\@writefile{toc}{\contentsline {subsection}{4.2.1 \hspace  {0.2cm} cach\IeC {\'e} mapeo directo con Best First Search}{16}}
\@writefile{lof}{\defcounter {refsection}{0}\relax }\@writefile{lof}{\contentsline {figure}{\numberline {4.2}{\ignorespaces Cach\IeC {\'e} Mapeo Directo con algoritmo Best First Search}}{16}}
\@writefile{toc}{\defcounter {refsection}{0}\relax }\@writefile{toc}{\contentsline {subsection}{4.2.2 \hspace  {0.2cm} Cach\IeC {\'e} Full asociativo con Best First Search}{17}}
\@writefile{lof}{\defcounter {refsection}{0}\relax }\@writefile{lof}{\contentsline {figure}{\numberline {4.3}{\ignorespaces Cach\IeC {\'e} Full Asociativo con algoritmo Best First Search}}{17}}
\@writefile{toc}{\defcounter {refsection}{0}\relax }\@writefile{toc}{\contentsline {subsection}{4.2.3 \hspace  {0.2cm} Cach\IeC {\'e} Asociativo de n bloques con Best First Search}{18}}
\@writefile{lof}{\defcounter {refsection}{0}\relax }\@writefile{lof}{\contentsline {figure}{\numberline {4.4}{\ignorespaces Cach\IeC {\'e} Asociativo de 2 bloques con algoritmo Best First Search}}{18}}
\@writefile{lof}{\defcounter {refsection}{0}\relax }\@writefile{lof}{\contentsline {figure}{\numberline {4.5}{\ignorespaces Cach\IeC {\'e} Asociativo de 8 bloques con algoritmo Best First Search}}{19}}
\@writefile{toc}{\defcounter {refsection}{0}\relax }\@writefile{toc}{\contentsline {section}{4.3 \hspace  {0.5cm}\uppercase {Pruebas algoritmo de Dijkstra}}{20}}
\@writefile{toc}{\defcounter {refsection}{0}\relax }\@writefile{toc}{\contentsline {subsection}{4.3.1 \hspace  {0.2cm} Cach\IeC {\'e} Mapeo Directo con algoritmo de Dijkstra}{20}}
\@writefile{lof}{\defcounter {refsection}{0}\relax }\@writefile{lof}{\contentsline {figure}{\numberline {4.6}{\ignorespaces Cach\IeC {\'e} Mapeo Directo con algoritmo de Dijkstra}}{20}}
\@writefile{toc}{\defcounter {refsection}{0}\relax }\@writefile{toc}{\contentsline {subsection}{4.3.2 \hspace  {0.2cm} Cach\IeC {\'e} Full Asociativo con algoritmo de Dijkstra}{21}}
\@writefile{lof}{\defcounter {refsection}{0}\relax }\@writefile{lof}{\contentsline {figure}{\numberline {4.7}{\ignorespaces Cach\IeC {\'e} Full Asociativo con algoritmo de Dijkstra}}{21}}
\@writefile{toc}{\defcounter {refsection}{0}\relax }\@writefile{toc}{\contentsline {subsection}{4.3.3 \hspace  {0.2cm} Cach\IeC {\'e} Asociativo de N bloques con algoritmo de Dijkstra}{22}}
\@writefile{lof}{\defcounter {refsection}{0}\relax }\@writefile{lof}{\contentsline {figure}{\numberline {4.8}{\ignorespaces Cach\IeC {\'e} Asociativo de 2 bloques con algoritmo de Dijkstra}}{22}}
\@writefile{lof}{\defcounter {refsection}{0}\relax }\@writefile{lof}{\contentsline {figure}{\numberline {4.9}{\ignorespaces Cach\IeC {\'e} Asociativo de 8 bloques con algoritmo de Dijkstra}}{23}}
\@writefile{toc}{\defcounter {refsection}{0}\relax }\@writefile{toc}{\contentsline {chapter}{CAP\IeC {\'I}TULO 5. \hspace  {0.2cm} \uppercase {Discusiones}}{25}}
\@writefile{toc}{\defcounter {refsection}{0}\relax }\@writefile{toc}{\contentsline {chapter}{CAP\IeC {\'I}TULO 6. \hspace  {0.2cm} \uppercase {Conclusi\IeC {\'o}n}}{27}}
\@writefile{toc}{\defcounter {refsection}{0}\relax }\@writefile{toc}{\contentsline {chapter}{CAP\IeC {\'I}TULO 7. \hspace  {0.2cm} \uppercase {Bibliograf\IeC {\'\i }a}}{29}}
\@writefile{toc}{\defcounter {refsection}{0}\relax }\@writefile{toc}{\contentsline {chapter}{CAP\IeC {\'I}TULO 8. \hspace  {0.2cm} \uppercase {Anexos}}{31}}
