\relax 
\catcode `"\active 
\catcode `<\active 
\catcode `>\active 
\@nameuse{es@quoting}
\abx@aux@sortscheme{apa}
\@writefile{toc}{\boolfalse {citerequest}\boolfalse {citetracker}\boolfalse {pagetracker}\boolfalse {backtracker}\relax }
\@writefile{lof}{\boolfalse {citerequest}\boolfalse {citetracker}\boolfalse {pagetracker}\boolfalse {backtracker}\relax }
\@writefile{lot}{\boolfalse {citerequest}\boolfalse {citetracker}\boolfalse {pagetracker}\boolfalse {backtracker}\relax }
\select@language{spanish}
\@writefile{toc}{\defcounter {refsection}{0}\relax }\@writefile{toc}{\select@language{spanish}}
\@writefile{lof}{\defcounter {refsection}{0}\relax }\@writefile{lof}{\select@language{spanish}}
\@writefile{lot}{\defcounter {refsection}{0}\relax }\@writefile{lot}{\select@language{spanish}}
\@writefile{toc}{\defcounter {refsection}{0}\relax }\@writefile{toc}{\contentsline {chapter}{\IeC {\'I}NDICE DE FIGURAS}{iv}}
\@writefile{toc}{\defcounter {refsection}{0}\relax }\@writefile{toc}{\contentsline {chapter}{CAP\IeC {\'I}TULO 1. \hspace  {0.2cm} \uppercase {Introducci\IeC {\'o}n}}{5}}
\@writefile{toc}{\defcounter {refsection}{0}\relax }\@writefile{toc}{\contentsline {section}{1.1 \hspace  {0.5cm}\uppercase {Motivaci\IeC {\'o}n}}{6}}
\@writefile{toc}{\defcounter {refsection}{0}\relax }\@writefile{toc}{\contentsline {section}{1.2 \hspace  {0.5cm}\uppercase {Objetivo General}}{6}}
\@writefile{toc}{\defcounter {refsection}{0}\relax }\@writefile{toc}{\contentsline {section}{1.3 \hspace  {0.5cm}\uppercase {Objetivos Espec\IeC {\'\i }ficos}}{6}}
\@writefile{toc}{\defcounter {refsection}{0}\relax }\@writefile{toc}{\contentsline {chapter}{CAP\IeC {\'I}TULO 2. \hspace  {0.2cm} \uppercase {Descripci\IeC {\'o}n del problema}}{7}}
\@writefile{toc}{\defcounter {refsection}{0}\relax }\@writefile{toc}{\contentsline {chapter}{CAP\IeC {\'I}TULO 3. \hspace  {0.2cm} \uppercase {Descripci\IeC {\'o}n del observatorio}}{9}}
\@writefile{toc}{\defcounter {refsection}{0}\relax }\@writefile{toc}{\contentsline {chapter}{CAP\IeC {\'I}TULO 4. \hspace  {0.2cm} \uppercase {Descripci\IeC {\'o}n de entidades y atributos}}{11}}
\@writefile{toc}{\defcounter {refsection}{0}\relax }\@writefile{toc}{\contentsline {chapter}{CAP\IeC {\'I}TULO 5. \hspace  {0.2cm} \uppercase {Modelo Entidad Relaci\IeC {\'o}n}}{17}}
\@writefile{lof}{\defcounter {refsection}{0}\relax }\@writefile{lof}{\contentsline {figure}{\numberline {5.1}{\ignorespaces Modelo conceptual de datos (Modelo Entidad Relaci\IeC {\'o}n) en PowerDesigner Versi\IeC {\'o}n 16.1.0.3637}}{17}}
\@writefile{lof}{\defcounter {refsection}{0}\relax }\@writefile{lof}{\contentsline {figure}{\numberline {5.2}{\ignorespaces Tablas de entidades con sus respectivos atributos en PowerDesigner Versi\IeC {\'o}n 16.1.0.3637}}{18}}
\@writefile{toc}{\defcounter {refsection}{0}\relax }\@writefile{toc}{\contentsline {chapter}{CAP\IeC {\'I}TULO 6. \hspace  {0.2cm} \uppercase {Conclusi\IeC {\'o}n}}{19}}
\@writefile{toc}{\defcounter {refsection}{0}\relax }\@writefile{toc}{\contentsline {chapter}{CAP\IeC {\'I}TULO 7. \hspace  {0.2cm} \uppercase {Referencias}}{21}}
